com\epam\newsmanagement\controller\CommentsController.class
com\epam\newsmanagement\utils\SearchCriteriaHelper.class
com\epam\newsmanagement\controller\NewsController.class
com\epam\newsmanagement\utils\RequestMappingNames.class
